\def\cprime{$'$}
\begin{thebibliography}{}

\bibitem[\protect\citeauthoryear{Brown}{Brown}{2006}]{BroTG}
Brown, R. (2006).
\newblock {\em Topology and groupoids}.
\newblock BookSurge, LLC, Charleston, SC.
\newblock Third edition of {{\i}t Elements of modern topology} [McGraw-Hill,
  New York, 1968], With 1 CD-ROM (Windows, Macintosh and UNIX).

\end{thebibliography}
